{
  "swagger": "2.0",
  "info": {
    "title": "API V1",
    "version": "v1"
  },
  "paths": {
    "/knapsack/admin/tasks": {
      "get": {
        "summary": "List of submitted, running, and completed tasks",
        "tags": [
          "Admin Tasks"
        ],
        "consumes": [
          "application/json"
        ],
        "responses": {
          "200": {
            "description": "List of tasks"
          }
        }
      }
    },
    "/knapsack/admin/shutdown": {
      "post": {
        "summary": "Shutdowns Puma (web server) and SideKick (background worker)",
        "tags": [
          "Admin"
        ],
        "consumes": [
          "application/json"
        ],
        "responses": {
          "204": {
            "description": "System shutdowned"
          }
        }
      }
    },
    "/knapsack/solutions/{id}": {
      "get": {
        "summary": "Retrieves a solution",
        "tags": [
          "Solutions"
        ],
        "produces": [
          "application/json"
        ],
        "parameters": [
          {
            "name": "id",
            "in": "path",
            "type": "string",
            "required": true
          }
        ],
        "responses": {
          "200": {
            "description": "solution found",
            "schema": {
              "type": "object",
              "properties": {
                "task": {
                  "type": "integer"
                },
                "problem": {
                  "type": "object",
                  "properties": {
                    "capacity": {
                      "type": "integer"
                    },
                    "weights": {
                      "type": "array",
                      "items": {
                        "type": "integer"
                      }
                    },
                    "values": {
                      "type": "array",
                      "items": {
                        "type": "integer"
                      }
                    }
                  }
                },
                "solution": {
                  "type": "object",
                  "properties": {
                    "items": {
                      "type": "array",
                      "items": {
                        "type": "integer"
                      }
                    },
                    "time": {
                      "type": "integer"
                    }
                  }
                }
              },
              "required": [
                "task",
                "problem",
                "solution"
              ]
            }
          },
          "404": {
            "description": "solution not found"
          }
        }
      }
    },
    "/knapsack/tasks": {
      "post": {
        "summary": "Creates a task",
        "tags": [
          "Tasks"
        ],
        "consumes": [
          "application/json"
        ],
        "parameters": [
          {
            "name": "task",
            "in": "body",
            "schema": {
              "type": "object",
              "properties": {
                "problem": {
                  "type": "object",
                  "properties": {
                    "capacity": {
                      "type": "integer"
                    },
                    "weights": {
                      "type": "array",
                      "items": {
                        "type": "integer"
                      }
                    },
                    "values": {
                      "type": "array",
                      "items": {
                        "type": "integer"
                      }
                    }
                  }
                }
              },
              "required": [
                "capacity",
                "weights",
                "values"
              ]
            }
          }
        ],
        "responses": {
          "200": {
            "description": "task created",
            "schema": {
              "type": "object",
              "properties": {
                "task": {
                  "type": "integer"
                },
                "status": {
                  "type": "string"
                },
                "timestamps": {
                  "type": "object",
                  "properties": {
                    "submitted": {
                      "type": "datetime"
                    },
                    "started": {
                      "type": "datetime"
                    },
                    "completed": {
                      "type": "datetime"
                    }
                  }
                }
              },
              "required": [
                "task",
                "status",
                "timestamps"
              ]
            }
          },
          "400": {
            "description": "invalid request (problem is invalid)",
            "schema": {
              "type": "object",
              "properties": {
                "errors": {
                  "type": "array",
                  "items": {
                    "type": "string"
                  }
                }
              }
            }
          }
        }
      }
    },
    "/knapsack/tasks/{id}": {
      "get": {
        "summary": "Retrieves a task",
        "tags": [
          "Tasks"
        ],
        "produces": [
          "application/json"
        ],
        "parameters": [
          {
            "name": "id",
            "in": "path",
            "type": "string",
            "required": true
          }
        ],
        "responses": {
          "200": {
            "description": "task found",
            "schema": {
              "type": "object",
              "properties": {
                "task": {
                  "type": "integer"
                },
                "status": {
                  "type": "string"
                },
                "timestamps": {
                  "type": "object",
                  "properties": {
                    "submitted": {
                      "type": "datetime"
                    },
                    "started": {
                      "type": "datetime"
                    },
                    "completed": {
                      "type": "datetime"
                    }
                  }
                }
              },
              "required": [
                "task",
                "status",
                "timestamps"
              ]
            }
          },
          "404": {
            "description": "task not found"
          }
        }
      }
    }
  }
}